…
    ## [1] "/Users/ameliaga/Documents/MPH Sem 3/Data Science/p8105_hw2_ag3911/p8105_hw2_ag3911"

``` r
subway_data = read_csv("./hw2 data/NYC_Transit_Subway_Entrance_And_Exit_Data.csv") %>%
  janitor::clean_names() %>%
  select(-division, -exit_only, -staffing, -staff_hours, -ada_notes, -entrance_location, -entrance_longitude, -entrance_latitude, -station_location, -corner, -east_west_street, -north_south_street, -free_crossover) %>%
  mutate(entry = recode(entry, "YES" = TRUE, "NO" = FALSE))
subway_data
```

    ## # A tibble: 1,868 x 19
    ##    line  station_name station_latitude station_longitu… route1 route2
    ##    <chr> <chr>                   <dbl>            <dbl> <chr>  <chr> 
    ##  1 4 Av… 25th St                  40.7            -74.0 R      <NA>  
    ##  2 4 Av… 25th St                  40.7            -74.0 R      <NA>  
    ##  3 4 Av… 36th St                  40.7            -74.0 N      R     
    ##  4 4 Av… 36th St                  40.7            -74.0 N      R     
    ##  5 4 Av… 36th St                  40.7            -74.0 N      R     
    ##  6 4 Av… 45th St                  40.6            -74.0 R      <NA>  
    ##  7 4 Av… 45th St                  40.6            -74.0 R      <NA>  
    ##  8 4 Av… 45th St                  40.6            -74.0 R      <NA>  
    ##  9 4 Av… 45th St                  40.6            -74.0 R      <NA>  
    ## 10 4 Av… 53rd St                  40.6            -74.0 R      <NA>  
    ## # ... with 1,858 more rows, and 13 more variables: route3 <chr>,
    ## #   route4 <chr>, route5 <chr>, route6 <chr>, route7 <chr>, route8 <int>,
    ## #   route9 <int>, route10 <int>, route11 <int>, entrance_type <chr>,
    ## #   entry <lgl>, vending <chr>, ada <lgl>
…
37.7% of station entrances/exits without vending allow
entrance.

## Reformat data so that route number and route name are distinct variables

## Q4: After reformatting the data so that route number and route name are distinct variables, how many distinct stations serve the A train?

``` r
tidy_subway_data = gather(subway_data, key = route_num, value = route_name, route1:route11)
# how to do this with nested %>% code? also, can't I now delete the route_num bc seems to have no purpose? 
tidy_subway_data
```

    ## # A tibble: 20,548 x 10
    ##    line  station_name station_latitude station_longitu… entrance_type entry
    ##    <chr> <chr>                   <dbl>            <dbl> <chr>         <lgl>
    ##  1 4 Av… 25th St                  40.7            -74.0 Stair         TRUE 
    ##  2 4 Av… 25th St                  40.7            -74.0 Stair         TRUE 
    ##  3 4 Av… 36th St                  40.7            -74.0 Stair         TRUE 
    ##  4 4 Av… 36th St                  40.7            -74.0 Stair         TRUE 
    ##  5 4 Av… 36th St                  40.7            -74.0 Stair         TRUE 
    ##  6 4 Av… 45th St                  40.6            -74.0 Stair         TRUE 
    ##  7 4 Av… 45th St                  40.6            -74.0 Stair         TRUE 
    ##  8 4 Av… 45th St                  40.6            -74.0 Stair         TRUE 
    ##  9 4 Av… 45th St                  40.6            -74.0 Stair         TRUE 
    ## 10 4 Av… 53rd St                  40.6            -74.0 Stair         TRUE 
    ## # ... with 20,538 more rows, and 4 more variables: vending <chr>,
    ## #   ada <lgl>, route_num <chr>, route_name <chr>
…
